animation{
  name = "waiting",
  src_image = "enemies/raven.png",
  frame_delay = 300,
  frame_to_loop_on = 0,
  directions = {
    { x = 0, y = 24, frame_width = 24, frame_height = 24, origin_x = 12, origin_y = 21, num_frames = 4 },
    { x = 0, y = 24, frame_width = 24, frame_height = 24, origin_x = 12, origin_y = 21, num_frames = 4 },
    { x = 0, y = 0, frame_width = 24, frame_height = 24, origin_x = 12, origin_y = 21, num_frames = 4 },
    { x = 0, y = 0, frame_width = 24, frame_height = 24, origin_x = 12, origin_y = 21, num_frames = 4 },
  },
}
animation{
  name = "flying",
  src_image = "enemies/raven.png",
  frame_delay = 100,
  frame_to_loop_on = 0,
  directions = {
    { x = 96, y = 24, frame_width = 24, frame_height = 24, origin_x = 12, origin_y = 21, num_frames = 2 },
    { x = 96, y = 24, frame_width = 24, frame_height = 24, origin_x = 12, origin_y = 21, num_frames = 2 },
    { x = 96, y = 0, frame_width = 24, frame_height = 24, origin_x = 12, origin_y = 21, num_frames = 2 },
    { x = 96, y = 0, frame_width = 24, frame_height = 24, origin_x = 12, origin_y = 21, num_frames = 2 },
  },
}
animation{
  name = "hurt",
  src_image = "enemies/raven.png",
  frame_delay = 50,
  frame_to_loop_on = 0,
  directions = {
    { x = 144, y = 24, frame_width = 24, frame_height = 24, origin_x = 12, origin_y = 21, num_frames = 3 },
    { x = 144, y = 24, frame_width = 24, frame_height = 24, origin_x = 12, origin_y = 21, num_frames = 3 },
    { x = 144, y = 0, frame_width = 24, frame_height = 24, origin_x = 12, origin_y = 21, num_frames = 3 },
    { x = 144, y = 0, frame_width = 24, frame_height = 24, origin_x = 12, origin_y = 21, num_frames = 3 },
  },
}
animation{
  name = "immobilized",
  src_image = "enemies/raven.png",
  frame_delay = 50,
  frame_to_loop_on = 0,
  directions = {
    { x = 216, y = 24, frame_width = 24, frame_height = 24, origin_x = 12, origin_y = 21 },
    { x = 216, y = 24, frame_width = 24, frame_height = 24, origin_x = 12, origin_y = 21 },
    { x = 216, y = 0, frame_width = 24, frame_height = 24, origin_x = 12, origin_y = 21 },
    { x = 216, y = 0, frame_width = 24, frame_height = 24, origin_x = 12, origin_y = 21 },
  },
}
animation{
  name = "shaking",
  src_image = "enemies/raven.png",
  frame_delay = 50,
  frame_to_loop_on = 0,
  directions = {
    { x = 216, y = 24, frame_width = 24, frame_height = 24, origin_x = 12, origin_y = 21, num_frames = 2 },
    { x = 216, y = 24, frame_width = 24, frame_height = 24, origin_x = 12, origin_y = 21, num_frames = 2 },
    { x = 216, y = 0, frame_width = 24, frame_height = 24, origin_x = 12, origin_y = 21, num_frames = 2 },
    { x = 216, y = 0, frame_width = 24, frame_height = 24, origin_x = 12, origin_y = 21, num_frames = 2 },
  },
}
