animation{
  name = "thrown",
  src_image = "entities/misc/ball.png",
  frame_delay = 100,
  frame_to_loop_on = 0,
  directions = {
    { x = 0, y = 0, frame_width = 16, frame_height = 24, origin_x = 8, origin_y = 21, num_frames = 8 },
    { x = 0, y = 0, frame_width = 16, frame_height = 24, origin_x = 8, origin_y = 21, num_frames = 8 },
    { x = 0, y = 0, frame_width = 16, frame_height = 24, origin_x = 8, origin_y = 21, num_frames = 8 },
    { x = 0, y = 0, frame_width = 16, frame_height = 24, origin_x = 8, origin_y = 21, num_frames = 8 },
  },
}
animation{
  name = "stopped",
  src_image = "entities/misc/ball.png",
  directions = {
    { x = 0, y = 0, frame_width = 16, frame_height = 24, origin_x = 8, origin_y = 21 },
    { x = 0, y = 0, frame_width = 16, frame_height = 24, origin_x = 8, origin_y = 21 },
    { x = 0, y = 0, frame_width = 16, frame_height = 24, origin_x = 8, origin_y = 21 },
    { x = 0, y = 0, frame_width = 16, frame_height = 24, origin_x = 8, origin_y = 21 },
  },
}
